[
  {
    "id": 1,
    "question": "¿Cu&#225;l es su p&#225;gina de Internet favorita?"
  },
  {
    "id": 2,
    "question": "¿Cu&#225;l es su color preferido?"
  },
  {
    "id": 3,
    "question": "¿Cu&#225;l es su marca favorita?"
  },
  {
    "id": 4,
    "question": "¿Cu&#225;l es su pa&#237;s favorito?"
  },
  {
    "id": 5,
    "question": "¿Cu&#225;l es su ciudad favorita?"
  },
  {
    "id": 6,
    "question": "¿Cu&#225;l es su perfume favorito?"
  },
  {
    "id": 7,
    "question": "¿Cu&#225;l es el color de su primer autom&#243;vil?"
  },
  {
    "id": 8,
    "question": "¿Cu&#225;l es su animal favorito?"
  },
  {
    "id": 9,
    "question": "¿Cu&#225;l es su programa de televisi&#243;n favorito?"
  },
  {
    "id": 10,
    "question": "¿Cu&#225;l es su comida favorita?"
  },
  {
    "id": 11,
    "question": "¿Cu&#225;l es su peri&#243;dico favorito?"
  },
  {
    "id": 12,
    "question": "¿Cu&#225;l es su canal de televisi&#243;n favorito?"
  },
  {
    "id": 13,
    "question": "¿Cu&#225;l es la marca de su primer autom&#243;vil?"
  },
  {
    "id": 14,
    "question": "¿Cu&#225;l es su marca favorita de ropa?"
  },
  {
    "id": 15,
    "question": "¿Cu&#225;l es su estaci&#243;n favorita del a&#241;o?"
  },
  {
    "id": 16,
    "question": "¿Cu&#225;l es su pel&#237;cula favorita?"
  },
  {
    "id": 17,
    "question": "¿Cu&#225;l es su marca favorita de calzado?"
  },
  {
    "id": 18,
    "question": "¿Cu&#225;l es el nombre de su perro?"
  },
  {
    "id": 19,
    "question": "¿Cu&#225;l es su p&#225;jaro favorito?"
  },
  {
    "id": 20,
    "question": "¿Cu&#225;l es su revista favorita?"
  }
]